…
  left_join(
    meta_lookup,
    by = c("to" = "bioplatforms_library_id")
  ) %>%
  rename(
    to_location = location_text
  )

annotated_edges
```

    ## # A tibble: 338 × 5
    ##    from        steps to          from_location to_location  
    ##    <chr>       <dbl> <chr>       <chr>         <chr>        
    ##  1 SRR29329050     1 SRR29328990 Moreton Bay   Hervey Bay   
    ##  2 628133          1 SRR29328990 Gladstone     Hervey Bay   
    ##  3 SRR29329060     1 SRR29329054 Clairview     Moreton Bay  
    ##  4 628114          1 628103      Exmouth Gulf  Exmouth Gulf 
    ##  5 628138          1 SRR29329040 Yarrabah      Clairview    
    ##  6 628086          1 SRR29328998 Townsville    Townsville   
    ##  7 628061          1 681989      Broome        Shark Bay    
    ##  8 628095          1 628062      Shark Bay     Shark Bay    
    ##  9 SRR29329045     1 SRR29328968 Moreton Bay   Moreton Bay  
    ## 10 181             1 682043      <NA>          New Caledonia
    ## # ℹ 328 more rows
…
  annotated_edges %>%
    select(ID = from, Location = from_location),

  annotated_edges %>%
    select(ID = to, Location = to_location)

) %>%
  filter(!is.na(Location)) %>%
  distinct()

sample_summary
```

    ## # A tibble: 180 × 2
    ##    ID          Location    
    ##    <chr>       <chr>       
    ##  1 SRR29329050 Moreton Bay 
    ##  2 628133      Gladstone   
    ##  3 SRR29329060 Clairview   
    ##  4 628114      Exmouth Gulf
    ##  5 628138      Yarrabah    
    ##  6 628086      Townsville  
    ##  7 628061      Broome      
    ##  8 628095      Shark Bay   
    ##  9 SRR29329045 Moreton Bay 
    ## 10 SRR29329041 Moreton Bay 
    ## # ℹ 170 more rows
…
  idx <- diagnostic_df$position >= bed$start[i] &
         diagnostic_df$position <= bed$end[i]

  diagnostic_df$gene[idx] <- bed$gene[i]
}

diagnostic_summary <- diagnostic_df %>%
  group_by(gene) %>%
  summarise(n_diag = n()) %>%
  arrange(desc(n_diag))

diagnostic_summary
```

    ## # A tibble: 21 × 2
    ##    gene  n_diag
    ##    <chr>  <int>
    ##  1 nad5      25
    ##  2 nad4      16
    ##  3 nad2      12
    ##  4 cob       10
    ##  5 nad1      10
    ##  6 cox1       8
    ##  7 nad6       8
    ##  8 cox3       6
    ##  9 atp6       5
    ## 10 cox2       5
    ## # ℹ 11 more rows
…
``` r
lineage_summary <- map_lineages %>%
  group_by(location_text, lineage) %>%
  summarise(n = n(), .groups = "drop") %>%
  tidyr::pivot_wider(
    names_from = lineage,
    values_from = n,
    values_fill = 0
  ) %>%
  arrange(location_text)

lineage_summary
```

    ## # A tibble: 27 × 3
    ##    location_text Widespread Restricted
    ##    <chr>              <int>      <int>
    ##  1 Airlie Beach           3          0
    ##  2 Barrow Island          1          0
    ##  3 Broome                 7          0
    ##  4 Clairview              2          6
    ##  5 Daintree               0          1
    ##  6 Darwin                 4          0
    ##  7 Elim Beach             1          0
    ##  8 Emu Park               0          1
    ##  9 Exmouth Gulf          11          0
    ## 10 Gladstone              0          4
    ## # ℹ 17 more rows
…
clade_members %>%
  filter(
    !is.na(Clade),
    !Region %in% c("QLD", "WA", "NT", "NSW", "Australia")
  ) %>%
  arrange(Clade, Region)
```

    ## # A tibble: 38 × 4
    ##    ID         Region                        Region_original               Clade
    ##    <chr>      <chr>                         <chr>                         <chr>
    ##  1 MH704298.1 Bahrain                       Bahrain                       A    
    ##  2 MH704428.1 Indian_Ocean                  Indian Ocean                  A    
    ##  3 MH704283.1 Indian_Ocean__Africa          Indian Ocean: Africa          A    
    ##  4 MH704374.1 Indian_Ocean__Nicobar_Islands Indian Ocean: Nicobar Islands A    
    ##  5 MH704315.1 Indonesia                     Indonesia                     A    
    ##  6 MH704275.1 Kenya                         Kenya                         A    
    ##  7 682047     New_Caledonia                 New Caledonia                 A    
    ##  8 682018     New_Caledonia                 New Caledonia                 A    
    ##  9 682014     New_Caledonia                 New Caledonia                 A    
    ## 10 EU835804.1 New_Caledonia                 New Caledonia                 A    
    ## # ℹ 28 more rows
…
